UCL/H OMOP course: Chapter 5 Visits and how we can use them
…
# A tibble: 3 × 3
  visit_concept_id     n concept_name
             <dbl> <int> <chr>
1             9201   105 Inpatient Visit
2             9202   105 Emergency Room Visit
3             9203   125 Outpatient Visit    

R

cdm$visit_occurrence

OUTPUT

# A tibble: 335 × 5
   person_id visit_occurrence_id visit_start_date visit_concept_id
       <int>               <int> <date>                      <dbl>
 1         1                   1 2020-12-02                   9201
 2         1                   2 2022-03-07                   9203
 3         1                   3 2020-01-26                   9203
 4         1                   4 2021-06-22                   9201
 5         1                   5 2022-09-07                   9201
 6         2                   6 2021-06-02                   9203
 7         2                   7 2022-08-13                   9203
 8         2                   8 2022-01-26                   9202
 9         2                   9 2021-10-27                   9202
10         2                  10 2021-07-06                   9203
# ℹ 325 more rows
# ℹ 1 more variable: visit_end_date <date>
…
