UCL/H OMOP course: All in One View
…
library(dplyr)

For example this code counts the number of records per condition.
Using collect() at the end performs the final database query and brings
the data into R.

R

cdm$condition_occurrence |> 
  count(condition_concept_id, sort=TRUE) |> 
  collect() 

OUTPUT

# A tibble: 80 × 2
   condition_concept_id     n
                  <int> <dbl>
 1             40481087 17268
 2              4112343 10217
 3               260139  8184
 4               372328  3605
 5                80180  2694
 6                28060  2656
 7                81151  1915
 8               378001  1013
 9              4283893  1001
10              4294548   939
# ℹ 70 more rows

The command above gives us a list of concept ids. To get the names of
the conditions you can use the omopcept package as before.

R

cdm$condition_occurrence |> 
  count(condition_concept_id, sort=TRUE) |> 
  collect() |> 
  omop_join_name_all()

OUTPUT

# A tibble: 80 × 3
   condition_concept_id condition_concept_name                       n
                  <int> <chr>                                    <dbl>
 1             40481087 Viral sinusitis                          17268
 2              4112343 Acute viral pharyngitis                  10217
 3               260139 Acute bronchitis                          8184
 4               372328 Otitis media                              3605
 5                80180 Osteoarthritis                            2694
 6                28060 Streptococcal sore throat                 2656
 7                81151 Sprain of ankle                           1915
 8               378001 Concussion with no loss of consciousness  1013
 9              4283893 Sinusitis                                 1001
10              4294548 Acute bacterial sinusitis                  939
# ℹ 70 more rows
…
R

cdm$condition_occurrence |> 
  count(condition_concept_id) |> 
  left_join(select(cdm$concept, concept_id, concept_name),
                   by = join_by(condition_concept_id == concept_id)) |>
  collect() |> 
  arrange(desc(n))

OUTPUT

# A tibble: 80 × 3
   condition_concept_id     n concept_name
                  <int> <dbl> <chr>
 1             40481087 17268 Viral sinusitis
 2              4112343 10217 Acute viral pharyngitis
 3               260139  8184 Acute bronchitis
 4               372328  3605 Otitis media
 5                80180  2694 Osteoarthritis
 6                28060  2656 Streptococcal sore throat
 7                81151  1915 Sprain of ankle
 8               378001  1013 Concussion with no loss of consciousness
 9              4283893  1001 Sinusitis
10              4294548   939 Acute bacterial sinusitis
# ℹ 70 more rows
…
cdm$person |> 
  left_join( cdm$condition_occurrence, by = join_by(person_id) ) |> 
  group_by(condition_concept_id, gender_concept_id) |>
  summarise(num_persons = n_distinct(person_id)) |>
  collect() |>
  ungroup() |> 
  omopcept::omop_join_name_all() |> 
  #remove some columns to make display clearer
  select(-condition_concept_id, -gender_concept_id) |> 
  arrange(condition_concept_name)  

OUTPUT

# A tibble: 158 × 3
   condition_concept_name    gender_concept_name num_persons
   <chr>                     <chr>                     <dbl>
 1 Acute allergic reaction   FEMALE                       59
 2 Acute allergic reaction   MALE                         57
 3 Acute bacterial sinusitis MALE                        368
 4 Acute bacterial sinusitis FEMALE                      418
 5 Acute bronchitis          MALE                       1243
 6 Acute bronchitis          FEMALE                     1300
 7 Acute cholecystitis       MALE                          6
 8 Acute cholecystitis       FEMALE                       29
 9 Acute viral pharyngitis   FEMALE                     1322
10 Acute viral pharyngitis   MALE                       1284
# ℹ 148 more rows
…
# A tibble: 3 × 3
  visit_concept_id     n concept_name
             <dbl> <int> <chr>
1             9201   105 Inpatient Visit
2             9202   105 Emergency Room Visit
3             9203   125 Outpatient Visit    

R

cdm$visit_occurrence

OUTPUT

# A tibble: 335 × 5
   person_id visit_occurrence_id visit_start_date visit_concept_id
       <int>               <int> <date>                      <dbl>
 1         1                   1 2020-12-02                   9201
 2         1                   2 2022-03-07                   9203
 3         1                   3 2020-01-26                   9203
 4         1                   4 2021-06-22                   9201
 5         1                   5 2022-09-07                   9201
 6         2                   6 2021-06-02                   9203
 7         2                   7 2022-08-13                   9203
 8         2                   8 2022-01-26                   9202
 9         2                   9 2021-10-27                   9202
10         2                  10 2021-07-06                   9203
# ℹ 325 more rows
# ℹ 1 more variable: visit_end_date <date>
…
