…
    intersect, setdiff, setequal, union
```

For example this code counts the number of records per condition. 
Using collect() at the end performs the final database query and brings the data into R.

``` r
cdm$condition_occurrence |> 
  count(condition_concept_id, sort=TRUE) |> 
  collect() 
```

``` output
# A tibble: 80 × 2
   condition_concept_id     n
                  <int> <dbl>
 1             40481087 17268
 2              4112343 10217
 3               260139  8184
 4               372328  3605
 5                80180  2694
 6                28060  2656
 7                81151  1915
 8               378001  1013
 9              4283893  1001
10              4294548   939
# ℹ 70 more rows
```
…
Alternatively using CDMConnector also gives us access to a table called `concept` that can be used to join on the concept names. 
NOTE: Because of the way `join` works, it is easier to `arrange` the table after it is collected.

``` r
cdm$condition_occurrence |> 
  count(condition_concept_id) |> 
  left_join(select(cdm$concept, concept_id, concept_name),
                   by = join_by(condition_concept_id == concept_id)) |>
  collect() |> 
  arrange(desc(n))
```

``` output
# A tibble: 80 × 3
   condition_concept_id     n concept_name                            
                  <int> <dbl> <chr>                                   
 1             40481087 17268 Viral sinusitis                         
 2              4112343 10217 Acute viral pharyngitis                 
 3               260139  8184 Acute bronchitis                        
 4               372328  3605 Otitis media                            
 5                80180  2694 Osteoarthritis                          
 6                28060  2656 Streptococcal sore throat               
 7                81151  1915 Sprain of ankle                         
 8               378001  1013 Concussion with no loss of consciousness
 9              4283893  1001 Sinusitis                               
10              4294548   939 Acute bacterial sinusitis               
# ℹ 70 more rows
```
…
