UCL/H OMOP course: Measurements and Observations
…
R

View(mini_observation)

ERROR

Error in .External2(C_dataviewer, x, title): unable to start data viewer

R

mini_observation

OUTPUT

# A tibble: 30 × 7
   observation_id person_id observation_concept_id observation_concept_name
            <int>     <int>                  <int> <chr>
 1           6001      1111                4160001 Clinical finding present
 2           6002      1111                4203130 Discharge from hospital
 3           6003      1112                4138933 Admission to intensive care …
 4           6004      1112               45772969 On ventilator
 5           6005      1112                4203130 Discharge from hospital
 6           6006      1112                4103640 Amputated foot
 7           6007      1112                4160001 Clinical finding present
 8           6008      1113                4024958 Throat culture
 9           6009      1113                4232313 Microbial identification kit…
10           6010      1113                4160001 Clinical finding present
# ℹ 20 more rows
# ℹ 3 more variables: value_as_concept_id <int>, value_as_concept_name <chr>,
#   value_as_number <int>
…
