UCL/H OMOP course: Dates and times
…
R

measurement_to_fix <- omop$measurement |>
  mutate(
    across(c(measurement_datetime, measurement_date, value_as_number), ~ as.character((.x)))
    ) |>
  collect()

measurement_to_fix

OUTPUT

# A tibble: 353 × 12
   measurement_id person_id measurement_concept_id measurement_date
            <dbl>     <int>                  <int> <chr>
 1           8001      1111                3020891 2025-07-22
 2           8002      1111                3004249 2025-07-22
 3           8003      1111                3012888 2025-07-22
 4           8004      1111                3027018 2025-07-22
 5           8005      1112                3013502 2024-01-15
 6           8006      1112                3027018 2024-01-15
 7           8007      1112                3020891 2024-01-15
 8           8009      1112                3027315 2024-01-16
 9           8010      1112                3013502 2024-01-18
10           8011      1112                3013502 2025-12-24
# ℹ 343 more rows
# ℹ 8 more variables: measurement_datetime <chr>, operator_concept_id <dbl>,
#   value_as_number <chr>, value_as_concept_id <dbl>, unit_concept_id <dbl>,
#   range_low <dbl>, range_high <dbl>, visit_occurrence_id <int>
…
